<svg xmlns="http://www.w3.org/2000/svg" width="54.44" height="21.487" viewBox="0 0 54.44 21.487">
  <path id="map-pe" d="M387.163,135.443l-8.255,4.243-5.786,4.4-.772-3.549,2.469-4.629L372.35,133.9l-6.018,4.706-6.635-1.234-2.006,1.775-3.626-4.089-8.41-.849-1.234,2.392,1.7,4.089-6.018,4.938,4.321,7.021,10.03-7.561,10.03,6.4,3.935-3.781,5.169,3.781,5.015-.231,5.246-3.935,5.169.077,1.775-2.16,1.312-8.873Z" transform="translate(-338.791 -132.621)" fill="none" stroke="#fff" stroke-width="2"/>
</svg>
