<svg xmlns="http://www.w3.org/2000/svg" width="24.535" height="12.962" viewBox="0 0 24.535 12.962">
  <path id="map-al-hover" d="M391.065,151.3l-5.246,3.935-5.015.231-5.169-3.781-3.935,3.781,14.582,8.8,3.472-1.543-.154-3.24,6.635-8.1Z" transform="translate(-371.7 -151.3)" fill="#fff"/>
</svg>
