<svg xmlns="http://www.w3.org/2000/svg" width="52.185" height="60.773" viewBox="0 0 52.185 60.773">
  <path id="map-rr" d="M135.508,30.475,133.039,18.9l3.395-8.564-3.472-3.7L132.731,0l-5.4.154-1,5.941-17.051,7.33-1.389-2.778L94,8.641l5.709,11.033,7.484,4.552.54,2.006,4.475,1.312,1.466,23.84,7.792,6.4,1-9.876,7.484,2.392,3.009-8.41,9.181-.309L143.3,33.33Z" transform="translate(-92.218 1.028)" fill="none" stroke="#fff" stroke-width="2"/>
</svg>
