<svg xmlns="http://www.w3.org/2000/svg" width="64.499" height="59.72" viewBox="0 0 64.499 59.72">
  <path id="map-ms" d="M205.977,253.462l-5.864-10.956L189.7,244.743l-8.564-4.243-8.41,4.861-4.861.617.694,2.623-2.7,15.431L162,265.189l3.935,5.015-.463,10.879,10.493,1.466,6.481-1.852,3.395,15.816,6.249-1.775,3.086,2.855,9.1-12.344,1.466-1.929,5.246-2.237,6.1-13.656,3.781-2.7,1.543-1.157,1.157-3.7Z" transform="translate(-160.308 -239.366)" fill="none" stroke="#fff" stroke-width="2"/>
</svg>
