<svg xmlns="http://www.w3.org/2000/svg" width="33.33" height="19.791" viewBox="0 0 33.33 19.791">
  <path id="map-pb-hover" d="M383.577,129.381l-7.33-2.16s2.623-5.169,2.777-5.555-4.4.309-4.4.309l-5.015,3.626-2.16-3.086.309,10.184-2.16,1.929,6.558,1.234,6.1-4.706,2.392,2.006-2.392,4.629.772,3.549,5.786-4.4,8.255-4.243,4.938.926.926-6.327L398,125.292l-12.73-1.466Z" transform="translate(-365.6 -121.549)" fill="#fff"/>
</svg>
