<svg xmlns="http://www.w3.org/2000/svg" width="144.398" height="102.093" viewBox="0 0 144.398 102.093">
  <path id="map-am" d="M57.585,131.928l3.009-3.7,6.249,1.157,1.543-1.62,4.629.463v-3.549h6.018l4.089-7.252,6.018-.231,6.789,7.484,2.932-2.237,26.078.926s1.157-7.407,1.775-11.8l-3.086-4.629L142.145,69.2l-12.576-4.861L120.85,54.234V48.988l-9.181.386-3.086,8.41-7.407-2.392-1.08,9.876-7.792-6.4L90.838,34.946l-4.552-1.312L67.615,45.13l-1.08-3.395-10.184,2.7L55.5,36.643,53.11,32.4l-6.635,3.163L46.32,37.8,33.127,36.643l1.157,5.015,5.4,1.234.849,3.472H32.047v5.709l4.938,3.009-1.543,2.932,2.623,2.932L32.741,86.87l-7.252-1.543-3.163,3.858L14.61,89.03l-6.1,5.555L7.358,105.233.8,107.47l2.237,2.778L32.9,119.2Z" transform="translate(0.875 -31.095)" fill="none" stroke="#fff" stroke-width="2"/>
</svg>
