<svg xmlns="http://www.w3.org/2000/svg" width="33.535" height="18.944" viewBox="0 0 33.535 18.944">
  <path id="map-rn" d="M393.538,111.466,379.5,110,368,119.8l2.16,3.086,5.015-3.626s4.552-.694,4.4-.309S376.8,124.5,376.8,124.5l7.33,2.16,1.7-5.632,12.73,1.466Z" transform="translate(-366.659 -108.961)" fill="none" stroke="#fff" stroke-width="2"/>
</svg>
