<svg xmlns="http://www.w3.org/2000/svg" width="43.546" height="70.604" viewBox="0 0 43.546 70.604">
  <path id="map-to" d="M280.683,153.394l-4.012-.231-6.018-8.718,4.629-6.789-.463-3.24-3.626,2.006-4.243-7.715,1.157-13.81L259,111.5l2.392,5.941-7.715,9.49-2.006,7.715L244.5,150.694l-3.626,8.178-.772,16.2,5.632-3.009-.772,3.395,7.33,3.009,1.312-3.009,7.33,3.858,15.508-3.549-1.62-14.273Z" transform="translate(-239.017 -109.771)" fill="none" stroke="#fff" stroke-width="2"/>
</svg>
