<svg xmlns="http://www.w3.org/2000/svg" width="33.484" height="41.74" viewBox="0 0 33.484 41.74">
  <path id="map-ce-hover" d="M372.984,104.654,351,86.6l-10.647,1.157L339.5,101.8l4.629,4.243-1.234,7.87,3.858,7.1-1.234,2.392,8.41.849,3.626,4.089,2.006-1.775,2.237-1.929-.309-10.184Z" transform="translate(-339.5 -86.6)" fill="#fff"/>
</svg>
