<svg xmlns="http://www.w3.org/2000/svg" width="18.44" height="26.618" viewBox="0 0 18.44 26.618">
  <path id="map-es-hover" d="M339.918,252.137l1.62,9.8-4.243,7.175-2.623-1-.772,4.321,2.16,3.7,5.478.386.309-3.549,9.953-10.724.54-10.107-4.475-2.237Z" transform="translate(-333.9 -249.9)" fill="#fff"/>
</svg>
