<svg xmlns="http://www.w3.org/2000/svg" width="10.563" height="5.439" viewBox="0 0 10.563 5.439">
  <path id="Caminho_722" data-name="Caminho 722" d="M3757.12,331.361l5.439-5.439H3752Z" transform="translate(-3751.996 -325.922)" fill="#fff"/>
</svg>
